{
  "migIndex": 1,
  "data": [
    {
      "path": "src/assets/fonts/Alkatra-VariableFont_wght.ttf",
      "sha1": "b82c5927d2c0898ec0a279b85c4488fd8c120c22"
    },
    {
      "path": "src/assets/fonts/Bitter-Black.ttf",
      "sha1": "cb7916a7ca79e6da7ecbf9a9f54b77c214e77af7"
    },
    {
      "path": "src/assets/fonts/Bitter-BlackItalic.ttf",
      "sha1": "af66623739ab3a572884597fbefb6800ff6335ee"
    },
    {
      "path": "src/assets/fonts/Bitter-Bold.ttf",
      "sha1": "1a92b0097fe770bb18b2b6a628136924b9ae3134"
    },
    {
      "path": "src/assets/fonts/Bitter-BoldItalic.ttf",
      "sha1": "fb682f7a47c1217416f3d5ccee07885367f18d86"
    },
    {
      "path": "src/assets/fonts/Bitter-ExtraBold.ttf",
      "sha1": "ab8e9fd03c34c1d741c842a3cb2328bb5e73717a"
    },
    {
      "path": "src/assets/fonts/Bitter-ExtraBoldItalic.ttf",
      "sha1": "eba7794d9b910b16bd7a0310bd55f5cd291e097c"
    },
    {
      "path": "src/assets/fonts/Bitter-ExtraLight.ttf",
      "sha1": "314a3d3b6831a11bed06b101fe1c05755fd3c645"
    },
    {
      "path": "src/assets/fonts/Bitter-ExtraLightItalic.ttf",
      "sha1": "c386c099b9ff3debca8ed2d3cc7fe58880832d76"
    },
    {
      "path": "src/assets/fonts/Bitter-Italic.ttf",
      "sha1": "8219a70f94cd253e165a4e2240ff00fe2e860a8f"
    },
    {
      "path": "src/assets/fonts/Bitter-Light.ttf",
      "sha1": "af4bb382bd1162b3d2e5f25d2d9a1e7e1ddcbf21"
    },
    {
      "path": "src/assets/fonts/Bitter-LightItalic.ttf",
      "sha1": "171467666c88e16db23d3a6c08b0c64d33e02309"
    },
    {
      "path": "src/assets/fonts/Bitter-Medium.ttf",
      "sha1": "3cfdea00a79f902105cda77a8ddd2a5256776556"
    },
    {
      "path": "src/assets/fonts/Bitter-MediumItalic.ttf",
      "sha1": "775af7e03904059c8281c1802817625939cb2be2"
    },
    {
      "path": "src/assets/fonts/Bitter-Regular.ttf",
      "sha1": "89bd9874134c4ff5083862eeea48f70d384f1653"
    },
    {
      "path": "src/assets/fonts/Bitter-SemiBold.ttf",
      "sha1": "9806355061d4e0dd3f6582e58e2fea8172e45be3"
    },
    {
      "path": "src/assets/fonts/Bitter-SemiBoldItalic.ttf",
      "sha1": "f14caae6b77a76a3ce5ac97264e9d42f572e19e5"
    },
    {
      "path": "src/assets/fonts/Bitter-Thin.ttf",
      "sha1": "25c289e1203800833ea3777f6b2fd0b8ccb4099a"
    },
    {
      "path": "src/assets/fonts/Bitter-ThinItalic.ttf",
      "sha1": "761bfc94f9e6e664082b708239a3c236171a9d6f"
    },
    {
      "path": "src/assets/fonts/CarterOne-Regular.ttf",
      "sha1": "088987baf523ac206b1d9b9e350bc72bf3949bd3"
    },
    {
      "path": "src/assets/fonts/DancingScript-Bold.ttf",
      "sha1": "42858229a137c5188a859df102afff145200114d"
    },
    {
      "path": "src/assets/fonts/DancingScript-Medium.ttf",
      "sha1": "30711d9cdbed046fef8128082c6cc1a9287dbc7c"
    },
    {
      "path": "src/assets/fonts/DancingScript-Regular.ttf",
      "sha1": "b52e869bd47b6e98fd907ae00b1828916451b3b0"
    },
    {
      "path": "src/assets/fonts/DancingScript-SemiBold.ttf",
      "sha1": "b5e71ddbaca9b4d5953f0c5e45bf326fb7df35ba"
    },
    {
      "path": "src/assets/fonts/Kanit-Black.ttf",
      "sha1": "7d7c545de2f02989d1f2a76849291b75f6e6b7e6"
    },
    {
      "path": "src/assets/fonts/Kanit-BlackItalic.ttf",
      "sha1": "57556af8831c92f61f91098bcce27f60002c6192"
    },
    {
      "path": "src/assets/fonts/Kanit-Bold.ttf",
      "sha1": "4d376a5447efe2ece1e3e39ff0fc2bbf3af0e5f8"
    },
    {
      "path": "src/assets/fonts/Kanit-BoldItalic.ttf",
      "sha1": "a515d96e8b0ae666c180ff853f07282647cce78b"
    },
    {
      "path": "src/assets/fonts/Kanit-ExtraBold.ttf",
      "sha1": "e880d5f10a706034ca71f17c6534a3e76e1319ad"
    },
    {
      "path": "src/assets/fonts/Kanit-ExtraBoldItalic.ttf",
      "sha1": "1505f04535bfb9ecbab2452a192d32f431a057fd"
    },
    {
      "path": "src/assets/fonts/Kanit-ExtraLight.ttf",
      "sha1": "c948dac66c673a313a9b43294e35b73a14a0cf69"
    },
    {
      "path": "src/assets/fonts/Kanit-ExtraLightItalic.ttf",
      "sha1": "81e72743d10d5bfbb8e6c10df63473c59f461851"
    },
    {
      "path": "src/assets/fonts/Kanit-Italic.ttf",
      "sha1": "d4b45fa70b71d7d3bc31ec3c09341672c660db28"
    },
    {
      "path": "src/assets/fonts/Kanit-Light.ttf",
      "sha1": "5f73684474721ddfc98168f5b8a634d7552e89d4"
    },
    {
      "path": "src/assets/fonts/Kanit-LightItalic.ttf",
      "sha1": "bfa800d600db0d72fda285fceaa2e0b5234f2faf"
    },
    {
      "path": "src/assets/fonts/Kanit-Medium.ttf",
      "sha1": "61ac6e618ea64ca7f4ae2444194e0bad4c72c8f9"
    },
    {
      "path": "src/assets/fonts/Kanit-MediumItalic.ttf",
      "sha1": "d4efe4ef0132a00a569ddcfb7bc292062fcd96ba"
    },
    {
      "path": "src/assets/fonts/Kanit-Regular.ttf",
      "sha1": "4d7b70e9717ae0adecc332fac9af7457063886a4"
    },
    {
      "path": "src/assets/fonts/Kanit-SemiBold.ttf",
      "sha1": "9715fb086966063735f84aa37f3e2dcd654ce999"
    },
    {
      "path": "src/assets/fonts/Kanit-SemiBoldItalic.ttf",
      "sha1": "ab47c69150c1552dc01230b7acd9423e2c3e6c47"
    },
    {
      "path": "src/assets/fonts/Kanit-Thin.ttf",
      "sha1": "c01a1c4d8a0cad6b8b4988b03c9c8f3dfa19242c"
    },
    {
      "path": "src/assets/fonts/Kanit-ThinItalic.ttf",
      "sha1": "684a356c889f48a71ca6220d2e4d86fd884f917a"
    },
    {
      "path": "src/assets/fonts/Lobster-Regular.ttf",
      "sha1": "120c751cd7a77174037c2409ab883ef7efc5edbb"
    },
    {
      "path": "src/assets/fonts/Lora-Italic-VariableFont_wght.ttf",
      "sha1": "4ff6999c37999a50b22fc7418d4682d1a5552251"
    },
    {
      "path": "src/assets/fonts/Lora-VariableFont_wght.ttf",
      "sha1": "99892d245c2df12e4073a72caae6c064f2e9672a"
    },
    {
      "path": "src/assets/fonts/Merriweather-Black.ttf",
      "sha1": "d62fa43472ef4248e8b447a0ff0ab283e0475448"
    },
    {
      "path": "src/assets/fonts/Merriweather-BlackItalic.ttf",
      "sha1": "1d90c06dd338b3b89b874855d445e95ba64ed7de"
    },
    {
      "path": "src/assets/fonts/Merriweather-Bold.ttf",
      "sha1": "34b46b97242a7454a10f742a805741eecc83c490"
    },
    {
      "path": "src/assets/fonts/Merriweather-BoldItalic.ttf",
      "sha1": "2207b710d19eb9d57c6707eb5ba3938e4b3ec7b1"
    },
    {
      "path": "src/assets/fonts/Merriweather-Italic.ttf",
      "sha1": "478b1c3fbc794a290270be7e4ec052e14a89579d"
    },
    {
      "path": "src/assets/fonts/Merriweather-Light.ttf",
      "sha1": "74d9f537010e5ac0ffe25990d1433873d98c9339"
    },
    {
      "path": "src/assets/fonts/Merriweather-LightItalic.ttf",
      "sha1": "b79c74969d524acbf8ab3df59562b2db83450002"
    },
    {
      "path": "src/assets/fonts/Merriweather-Regular.ttf",
      "sha1": "f4e7810e4e20d1932d3d7994bb6f6456280ee6bd"
    },
    {
      "path": "src/assets/fonts/NotoSerif-Bold.ttf",
      "sha1": "0369d526665f453b5e6f3286eb5321363dea52ca"
    },
    {
      "path": "src/assets/fonts/NotoSerif-BoldItalic.ttf",
      "sha1": "b9aaf42da7fd9b962a1f79a61410a8da123465cf"
    },
    {
      "path": "src/assets/fonts/NotoSerif-Italic.ttf",
      "sha1": "fff26b852987a7f0b08b1e4296b46b45c43a047e"
    },
    {
      "path": "src/assets/fonts/NotoSerif-Regular.ttf",
      "sha1": "952636df6bc4b19aace33f8e8aa3502cf038493d"
    },
    {
      "path": "src/assets/fonts/PlayfairDisplay-Black.ttf",
      "sha1": "bfccbb9a4c46f3d3c30d245af74442e730d56723"
    },
    {
      "path": "src/assets/fonts/PlayfairDisplay-BlackItalic.ttf",
      "sha1": "fa47f0f9a0be6d7f5b9cd731ae0acc941b86ed4f"
    },
    {
      "path": "src/assets/fonts/PlayfairDisplay-Bold.ttf",
      "sha1": "a01693c7d32826d9626013a283d22748314a2157"
    },
    {
      "path": "src/assets/fonts/PlayfairDisplay-BoldItalic.ttf",
      "sha1": "e9258014d6c7a541dce54e2dda072ef7ba279744"
    },
    {
      "path": "src/assets/fonts/PlayfairDisplay-ExtraBold.ttf",
      "sha1": "0201a849f2e41c093c1a67ee4fc5901d8e74eaf0"
    },
    {
      "path": "src/assets/fonts/PlayfairDisplay-ExtraBoldItalic.ttf",
      "sha1": "d862cce7d2a9efcfb6333e099c883e3cf6fe81d6"
    },
    {
      "path": "src/assets/fonts/PlayfairDisplay-Italic.ttf",
      "sha1": "1e0084ef41c9f0c72c0447a5bd4f4902fc370702"
    },
    {
      "path": "src/assets/fonts/PlayfairDisplay-Medium.ttf",
      "sha1": "d79552175bfa3a0c706e0a1a68c59148c5f24913"
    },
    {
      "path": "src/assets/fonts/PlayfairDisplay-MediumItalic.ttf",
      "sha1": "4990df5a06bcd76b07e8a0d7f9326d438739f034"
    },
    {
      "path": "src/assets/fonts/PlayfairDisplay-Regular.ttf",
      "sha1": "b93c059782bd1c16bc0c5c495d245e2147a7c573"
    },
    {
      "path": "src/assets/fonts/PlayfairDisplay-SemiBold.ttf",
      "sha1": "a2e44d97ebaa6a5465030d3c0b362aac281435b6"
    },
    {
      "path": "src/assets/fonts/PlayfairDisplay-SemiBoldItalic.ttf",
      "sha1": "40a657362292d89706dd22620f21cc42fcef4020"
    },
    {
      "path": "src/assets/fonts/Prata-Regular.ttf",
      "sha1": "49a1d8d14e5c861637d89cce31a2dfdad14666ff"
    },
    {
      "path": "src/assets/fonts/PTSerif-Bold.ttf",
      "sha1": "581675fd5d3734c5ee1506359190ce467c477e18"
    },
    {
      "path": "src/assets/fonts/PTSerif-BoldItalic.ttf",
      "sha1": "f440f00aae9cf53d7f40d4feb41fa380d063d502"
    },
    {
      "path": "src/assets/fonts/PTSerif-Italic.ttf",
      "sha1": "ab129b4c762edcc4724d46ee655f461bfc98bdaa"
    },
    {
      "path": "src/assets/fonts/PTSerif-Regular.ttf",
      "sha1": "9ea0ea4d9ed8fda292db458366dbd9af013eced7"
    },
    {
      "path": "src/assets/fonts/Roboto-Black.ttf",
      "sha1": "869d4331ed87830e8f19105aff140f1458655e95"
    },
    {
      "path": "src/assets/fonts/Roboto-BlackItalic.ttf",
      "sha1": "908c8317572c7cff1be2155688f93f95c47c0c5c"
    },
    {
      "path": "src/assets/fonts/Roboto-Bold.ttf",
      "sha1": "3a4a7ff4fdba5317d6941e2d66e629df6c3c8cf3"
    },
    {
      "path": "src/assets/fonts/Roboto-BoldItalic.ttf",
      "sha1": "e60a97022d9be48539250d34f6385b5f31adde3f"
    },
    {
      "path": "src/assets/fonts/Roboto-Italic.ttf",
      "sha1": "7a1bc639173979e30cfff371155bacd085229650"
    },
    {
      "path": "src/assets/fonts/Roboto-Light.ttf",
      "sha1": "1f9e268d4e7502ea2d1d34957cbefc620501430d"
    },
    {
      "path": "src/assets/fonts/Roboto-LightItalic.ttf",
      "sha1": "6ea5f5c49e0b329400a17b0efd961ca3a4bc9b23"
    },
    {
      "path": "src/assets/fonts/Roboto-Medium.ttf",
      "sha1": "b5ba3632933756e9f7e8a0f83bfe90c215a768e2"
    },
    {
      "path": "src/assets/fonts/Roboto-MediumItalic.ttf",
      "sha1": "ffec707f02edfa4bedca63510dc5e4358cf9c94d"
    },
    {
      "path": "src/assets/fonts/Roboto-Regular.ttf",
      "sha1": "ba879317acdc045b8fa78cb8f948650627d0477c"
    },
    {
      "path": "src/assets/fonts/Roboto-Thin.ttf",
      "sha1": "2e5609fc4b59d3d133007785e689373573da7d91"
    },
    {
      "path": "src/assets/fonts/Roboto-ThinItalic.ttf",
      "sha1": "632be75b29d9768a3fa194b2d195bd5e966927fa"
    },
    {
      "path": "src/assets/fonts/RobotoMono-Bold.ttf",
      "sha1": "0c75d7b11dacfede72053e40b71849c43c22a454"
    },
    {
      "path": "src/assets/fonts/RobotoMono-BoldItalic.ttf",
      "sha1": "6be5bc60f9bfb14a8f81d56587d7c4eb266f2a54"
    },
    {
      "path": "src/assets/fonts/RobotoMono-ExtraLight.ttf",
      "sha1": "6546ced3a36a1640b7b684bca4f23481a2ec6e02"
    },
    {
      "path": "src/assets/fonts/RobotoMono-ExtraLightItalic.ttf",
      "sha1": "e11bf51b3cd448df5383bbe49a206c27065c222c"
    },
    {
      "path": "src/assets/fonts/RobotoMono-Italic.ttf",
      "sha1": "fae9acb23533e32c69da98c3e288d333245b5b4b"
    },
    {
      "path": "src/assets/fonts/RobotoMono-Light.ttf",
      "sha1": "d783629f1972675179c9d4d3db8fffa037f62c77"
    },
    {
      "path": "src/assets/fonts/RobotoMono-LightItalic.ttf",
      "sha1": "67cec1b29fcc2368ebff2e7b34c0b1caf751966b"
    },
    {
      "path": "src/assets/fonts/RobotoMono-Medium.ttf",
      "sha1": "ba4ac211bbcd66da7712aa059b214155f4f7a93a"
    },
    {
      "path": "src/assets/fonts/RobotoMono-MediumItalic.ttf",
      "sha1": "09bce12e925877d49f0fe5433b555f7c53f050a5"
    },
    {
      "path": "src/assets/fonts/RobotoMono-Regular.ttf",
      "sha1": "10459dd11ec5adb59f3775b062dc06c4abe70a3a"
    },
    {
      "path": "src/assets/fonts/RobotoMono-SemiBold.ttf",
      "sha1": "d2edc0348f2ee3d5031838a96d65201ac55d2587"
    },
    {
      "path": "src/assets/fonts/RobotoMono-SemiBoldItalic.ttf",
      "sha1": "68e528898509ec4bf78fd9c905d6bf67e274c0e0"
    },
    {
      "path": "src/assets/fonts/RobotoMono-Thin.ttf",
      "sha1": "c8ca137fa86427da7d776e55ba3d3da82f6553f7"
    },
    {
      "path": "src/assets/fonts/RobotoMono-ThinItalic.ttf",
      "sha1": "1a8987e423a9a04df440d990d6f1ee9d7bc4f9c3"
    },
    {
      "path": "src/assets/fonts/Staatliches-Regular.ttf",
      "sha1": "e81d9f0c3109b0e7e84ccb5d35ee66f630f4dfd8"
    }
  ]
}
